…
The first thing to do is to add a logical vector to your tibble whose value is `TRUE` when the target value (e.g., `Z`) is present in the sequence, false otherwise.


```r
runsdata_tgt <- runsdata %>%
  mutate(is_target = (stimulus == "Z"))

runsdata_tgt
```

```
## # A tibble: 553 x 4
##    subject trial stimulus is_target
##      <int> <int> <chr>    <lgl>    
##  1       1     1 c        FALSE    
##  2       1     1 c        FALSE    
##  3       1     1 a        FALSE    
##  4       1     1 a        FALSE    
##  5       1     1 a        FALSE    
##  6       1     1 a        FALSE    
##  7       1     1 d        FALSE    
##  8       1     1 d        FALSE    
##  9       1     1 d        FALSE    
## 10       1     1 d        FALSE    
## # … with 543 more rows
```
…
Now we just have to unnest and we're done!


```r
result %>%
  select(-subtbl) %>%
  unnest(runstbl)
```

```
## # A tibble: 30 x 5
##    subject trial   run start_fr end_fr
##      <int> <int> <int>    <int>  <int>
##  1       1     1     1       15     17
##  2       1     1     2       32     34
##  3       1     2     1       14     16
##  4       1     2     2       29     31
##  5       1     3     1       13     15
##  6       1     3     2       26     28
##  7       2     1     1       12     14
##  8       2     1     2       27     29
##  9       2     2     1       11     13
## 10       2     2     2       24     26
## # … with 20 more rows
```
…
