Topic 6 Data Wrangling | Frequently Asked Questions (FAQ) from University of Glasgow Psychology Students
…
## # A tibble: 2 x 5
##   subject trial   run start_frame end_frame
##     <dbl> <dbl> <int>       <int>     <int>
## 1       1     1     1          13        15
## 2       1     1     2          28        30

The first thing to do is to add a logical vector to your tibble whose value is TRUE when the target value (e.g., Z) is present in the sequence, false otherwise.

runsdata_tgt <- runsdata %>%
  mutate(is_target = (stimulus == "Z"))

runsdata_tgt

## # A tibble: 552 x 4
##    subject trial stimulus is_target
##      <int> <int> <chr>    <lgl>    
##  1       1     1 c        FALSE    
##  2       1     1 c        FALSE    
##  3       1     1 b        FALSE    
##  4       1     1 b        FALSE    
##  5       1     1 b        FALSE    
##  6       1     1 d        FALSE    
##  7       1     1 d        FALSE    
##  8       1     1 d        FALSE    
##  9       1     1 a        FALSE    
## 10       1     1 a        FALSE    
## # … with 542 more rows
…
Now we just have to unnest and we’re done!

result %>%
  select(-subtbl) %>%
  unnest(runstbl)

## # A tibble: 30 x 5
##    subject trial   run start_fr end_fr
##      <int> <int> <int>    <int>  <int>
##  1       1     1     1       13     15
##  2       1     1     2       28     30
##  3       1     2     1       15     17
##  4       1     2     2       31     33
##  5       1     3     1       14     16
##  6       1     3     2       30     32
##  7       2     1     1       17     19
##  8       2     1     2       32     34
##  9       2     2     1       16     18
## 10       2     2     2       34     36
## # … with 20 more rows
…
